<svg id="workspace" xmlns="http://www.w3.org/2000/svg" xmlns:xlink="http://www.w3.org/1999/xlink" style="text-rendering: geometricPrecision;"><desc>Created with Snap</desc><defs><linearGradient x1="0" y1="0.5" x2="1" y2="0.5" id="linearGradientSjglspix01c"><stop offset="0%" stop-color="#1761a0"></stop><stop offset="100%" stop-color="#1761a0"></stop></linearGradient><linearGradient x1="0" y1="0.5" x2="1" y2="0.5" id="linearGradientSjglspix01l"><stop offset="0%" stop-color="#f0a418"></stop><stop offset="100%" stop-color="#f0a418"></stop></linearGradient><linearGradient x1="0" y1="0.5" x2="1" y2="0.5" id="linearGradientSjglspix01u"><stop offset="0%" stop-color="#f0a418"></stop><stop offset="100%" stop-color="#f0a418"></stop></linearGradient><linearGradient x1="0" y1="0.5" x2="1" y2="0.5" id="linearGradientSjglspix023"><stop offset="0%" stop-color="#f0a418"></stop><stop offset="100%" stop-color="#f0a418"></stop></linearGradient><linearGradient x1="0" y1="0.5" x2="1" y2="0.5" id="linearGradientSjglspix02c"><stop offset="0%" stop-color="#f0a418"></stop><stop offset="100%" stop-color="#f0a418"></stop></linearGradient><linearGradient x1="0" y1="0.5" x2="1" y2="0.5" id="linearGradientSjglspix02l"><stop offset="0%" stop-color="#f0a418"></stop><stop offset="100%" stop-color="#f0a418"></stop></linearGradient><linearGradient x1="0" y1="0.5" x2="1" y2="0.5" id="linearGradientSjglspix02u"><stop offset="0%" stop-color="#f0a418"></stop><stop offset="100%" stop-color="#f0a418"></stop></linearGradient><linearGradient x1="0" y1="0.5" x2="1" y2="0.5" id="linearGradientSjglspix033"><stop offset="0%" stop-color="#f0a418"></stop><stop offset="100%" stop-color="#f0a418"></stop></linearGradient><linearGradient x1="0" y1="0.5" x2="1" y2="0.5" id="linearGradientSjglspix03c"><stop offset="0%" stop-color="#f0a418"></stop><stop offset="100%" stop-color="#f0a418"></stop></linearGradient><linearGradient x1="0" y1="0.5" x2="1" y2="0.5" id="linearGradientSjglspix03l"><stop offset="0%" stop-color="#f0a418"></stop><stop offset="100%" stop-color="#f0a418"></stop></linearGradient><linearGradient x1="0" y1="0.5" x2="1" y2="0.5" id="linearGradientSjglspix03u"><stop offset="0%" stop-color="#f0a418"></stop><stop offset="100%" stop-color="#f0a418"></stop></linearGradient><linearGradient x1="0" y1="0.5" x2="1" y2="0.5" id="linearGradientSjglspix043"><stop offset="0%" stop-color="#f0a418"></stop><stop offset="100%" stop-color="#f0a418"></stop></linearGradient><linearGradient x1="0" y1="0.5" x2="1" y2="0.5" id="linearGradientSjglspix04c"><stop offset="0%" stop-color="#f0a418"></stop><stop offset="100%" stop-color="#f0a418"></stop></linearGradient><linearGradient x1="0" y1="0.5" x2="1" y2="0.5" id="linearGradientSjglspix04l"><stop offset="0%" stop-color="#f0a418"></stop><stop offset="100%" stop-color="#f0a418"></stop></linearGradient><linearGradient x1="0" y1="0.5" x2="1" y2="0.5" id="linearGradientSjglspix04u"><stop offset="0%" stop-color="#f0a418"></stop><stop offset="100%" stop-color="#f0a418"></stop></linearGradient><linearGradient x1="0" y1="0.5" x2="1" y2="0.5" id="linearGradientSjglspix053"><stop offset="0%" stop-color="#f0a418"></stop><stop offset="100%" stop-color="#f0a418"></stop></linearGradient><linearGradient x1="0" y1="0.5" x2="1" y2="0.5" id="linearGradientSjglspix05c"><stop offset="0%" stop-color="#f0a418"></stop><stop offset="100%" stop-color="#f0a418"></stop></linearGradient><linearGradient x1="0" y1="0.5" x2="1" y2="0.5" id="linearGradientSjglspix05l"><stop offset="0%" stop-color="#f0a418"></stop><stop offset="100%" stop-color="#f0a418"></stop></linearGradient><linearGradient x1="0" y1="0.5" x2="1" y2="0.5" id="linearGradientSjglspix05u"><stop offset="0%" stop-color="#f0a418"></stop><stop offset="100%" stop-color="#f0a418"></stop></linearGradient><linearGradient x1="0" y1="0.5" x2="1" y2="0.5" id="linearGradientSjglspix063"><stop offset="0%" stop-color="#f0a418"></stop><stop offset="100%" stop-color="#f0a418"></stop></linearGradient><linearGradient x1="0" y1="0.5" x2="1" y2="0.5" id="linearGradientSjglspix06c"><stop offset="0%" stop-color="#f0a418"></stop><stop offset="100%" stop-color="#f0a418"></stop></linearGradient><linearGradient x1="0" y1="0.5" x2="1" y2="0.5" id="linearGradientSjglspix06l"><stop offset="0%" stop-color="#f0a418"></stop><stop offset="100%" stop-color="#f0a418"></stop></linearGradient><linearGradient x1="0" y1="0.5" x2="1" y2="0.5" id="linearGradientSjglspix06u"><stop offset="0%" stop-color="#f0a418"></stop><stop offset="100%" stop-color="#f0a418"></stop></linearGradient><linearGradient x1="0" y1="0.5" x2="1" y2="0.5" id="linearGradientSjglspix073"><stop offset="0%" stop-color="#f0a418"></stop><stop offset="100%" stop-color="#f0a418"></stop></linearGradient><linearGradient x1="0" y1="0.5" x2="1" y2="0.5" id="linearGradientSjglspix07c"><stop offset="0%" stop-color="#f0a418"></stop><stop offset="100%" stop-color="#f0a418"></stop></linearGradient><linearGradient x1="0" y1="0.5" x2="1" y2="0.5" id="linearGradientSjglspix07l"><stop offset="0%" stop-color="#f0a418"></stop><stop offset="100%" stop-color="#f0a418"></stop></linearGradient><linearGradient x1="0" y1="0.5" x2="1" y2="0.5" id="linearGradientSjglspix07u"><stop offset="0%" stop-color="#f0a418"></stop><stop offset="100%" stop-color="#f0a418"></stop></linearGradient><linearGradient x1="0" y1="0.5" x2="1" y2="0.5" id="linearGradientSjglspix083"><stop offset="0%" stop-color="#f0a418"></stop><stop offset="100%" stop-color="#f0a418"></stop></linearGradient><linearGradient x1="0" y1="0.5" x2="1" y2="0.5" id="linearGradientSjglspix08c"><stop offset="0%" stop-color="#f0a418"></stop><stop offset="100%" stop-color="#f0a418"></stop></linearGradient><linearGradient x1="0" y1="0.5" x2="1" y2="0.5" id="linearGradientSjglspix08l"><stop offset="0%" stop-color="#f0a418"></stop><stop offset="100%" stop-color="#f0a418"></stop></linearGradient><linearGradient x1="0" y1="0.5" x2="1" y2="0.5" id="linearGradientSjglspix08u"><stop offset="0%" stop-color="#f0a418"></stop><stop offset="100%" stop-color="#f0a418"></stop></linearGradient><linearGradient x1="0" y1="0.5" x2="1" y2="0.5" id="linearGradientSjglspix093"><stop offset="0%" stop-color="#f0a418"></stop><stop offset="100%" stop-color="#f0a418"></stop></linearGradient><linearGradient x1="0" y1="0.5" x2="1" y2="0.5" id="linearGradientSjglspix09c"><stop offset="0%" stop-color="#f0a418"></stop><stop offset="100%" stop-color="#f0a418"></stop></linearGradient><linearGradient x1="0" y1="0.5" x2="1" y2="0.5" id="linearGradientSjglspix09l"><stop offset="0%" stop-color="#f0a418"></stop><stop offset="100%" stop-color="#f0a418"></stop></linearGradient><linearGradient x1="0" y1="0.5" x2="1" y2="0.5" id="linearGradientSjglspix09u"><stop offset="0%" stop-color="#f0a418"></stop><stop offset="100%" stop-color="#f0a418"></stop></linearGradient><linearGradient x1="0" y1="0.5" x2="1" y2="0.5" id="linearGradientSjglspix0a3"><stop offset="0%" stop-color="#f0a418"></stop><stop offset="100%" stop-color="#f0a418"></stop></linearGradient><linearGradient x1="0" y1="0.5" x2="1" y2="0.5" id="linearGradientSjglspix0ac"><stop offset="0%" stop-color="#f0a418"></stop><stop offset="100%" stop-color="#f0a418"></stop></linearGradient><linearGradient x1="0" y1="0.5" x2="1" y2="0.5" id="linearGradientSjglspix0al"><stop offset="0%" stop-color="#f0a418"></stop><stop offset="100%" stop-color="#f0a418"></stop></linearGradient><linearGradient x1="0" y1="0.5" x2="1" y2="0.5" id="linearGradientSjglspix0au"><stop offset="0%" stop-color="#f0a418"></stop><stop offset="100%" stop-color="#f0a418"></stop></linearGradient><linearGradient x1="0" y1="0.5" x2="1" y2="0.5" id="linearGradientSjglspix0b3"><stop offset="0%" stop-color="#f0a418"></stop><stop offset="100%" stop-color="#f0a418"></stop></linearGradient><linearGradient x1="0" y1="0.5" x2="1" y2="0.5" id="linearGradientSjglspix0bc"><stop offset="0%" stop-color="#f0a418"></stop><stop offset="100%" stop-color="#f0a418"></stop></linearGradient><linearGradient x1="0" y1="0.5" x2="1" y2="0.5" id="linearGradientSjglspix0bl"><stop offset="0%" stop-color="#f0a418"></stop><stop offset="100%" stop-color="#f0a418"></stop></linearGradient><linearGradient x1="0" y1="0.5" x2="1" y2="0.5" id="linearGradientSjglspix0bu"><stop offset="0%" stop-color="#f0a418"></stop><stop offset="100%" stop-color="#f0a418"></stop></linearGradient><linearGradient x1="0" y1="0.5" x2="1" y2="0.5" id="linearGradientSjglspix0c3"><stop offset="0%" stop-color="#f0a418"></stop><stop offset="100%" stop-color="#f0a418"></stop></linearGradient><linearGradient x1="0" y1="0.5" x2="1" y2="0.5" id="linearGradientSjglspix0cc"><stop offset="0%" stop-color="#f0a418"></stop><stop offset="100%" stop-color="#f0a418"></stop></linearGradient><linearGradient x1="0" y1="0.5" x2="1" y2="0.5" id="linearGradientSjglspix0cl"><stop offset="0%" stop-color="#f0a418"></stop><stop offset="100%" stop-color="#f0a418"></stop></linearGradient><linearGradient x1="0" y1="0.5" x2="1" y2="0.5" id="linearGradientSjglspix0cu"><stop offset="0%" stop-color="#f0a418"></stop><stop offset="100%" stop-color="#f0a418"></stop></linearGradient><linearGradient x1="0" y1="0.5" x2="1" y2="0.5" id="linearGradientSjglspix0d3"><stop offset="0%" stop-color="#f0a418"></stop><stop offset="100%" stop-color="#f0a418"></stop></linearGradient><linearGradient x1="0" y1="0.5" x2="1" y2="0.5" id="linearGradientSjglspix0dc"><stop offset="0%" stop-color="#f0a418"></stop><stop offset="100%" stop-color="#f0a418"></stop></linearGradient><linearGradient x1="0" y1="0.5" x2="1" y2="0.5" id="linearGradientSjglspix0dl"><stop offset="0%" stop-color="#f0a418"></stop><stop offset="100%" stop-color="#f0a418"></stop></linearGradient><linearGradient x1="0" y1="0.5" x2="1" y2="0.5" id="linearGradientSjglspix0du"><stop offset="0%" stop-color="#f0a418"></stop><stop offset="100%" stop-color="#f0a418"></stop></linearGradient><linearGradient x1="0" y1="0.5" x2="1" y2="0.5" id="linearGradientSjglspix0e3"><stop offset="0%" stop-color="#f0a418"></stop><stop offset="100%" stop-color="#f0a418"></stop></linearGradient><linearGradient x1="0" y1="0.5" x2="1" y2="0.5" id="linearGradientSjglspix0ec"><stop offset="0%" stop-color="#f0a418"></stop><stop offset="100%" stop-color="#f0a418"></stop></linearGradient><linearGradient x1="0" y1="0.5" x2="1" y2="0.5" id="linearGradientSjglspix0el"><stop offset="0%" stop-color="#f0a418"></stop><stop offset="100%" stop-color="#f0a418"></stop></linearGradient><linearGradient x1="0" y1="0.5" x2="1" y2="0.5" id="linearGradientSjglspix0eu"><stop offset="0%" stop-color="#f0a418"></stop><stop offset="100%" stop-color="#f0a418"></stop></linearGradient><linearGradient x1="0" y1="0.5" x2="1" y2="0.5" id="linearGradientSjglspix0f3"><stop offset="0%" stop-color="#1761a0"></stop><stop offset="100%" stop-color="#1761a0"></stop></linearGradient><linearGradient x1="0" y1="0.5" x2="1" y2="0.5" id="linearGradientSjglspix0fc"><stop offset="0%" stop-color="#1761a0"></stop><stop offset="100%" stop-color="#1761a0"></stop></linearGradient><linearGradient x1="0" y1="0.5" x2="1" y2="0.5" id="linearGradientSjglspix0fj"><stop offset="0%" stop-color="#1761a0"></stop><stop offset="100%" stop-color="#1761a0"></stop></linearGradient><linearGradient x1="0" y1="0.5" x2="1" y2="0.5" id="linearGradientSjglspix0fm"><stop offset="0%" stop-color="#1761a0"></stop><stop offset="100%" stop-color="#1761a0"></stop></linearGradient><linearGradient x1="0" y1="0.5" x2="1" y2="0.5" id="linearGradientSjglspix0fp"><stop offset="0%" stop-color="#f0a418"></stop><stop offset="100%" stop-color="#f0a418"></stop></linearGradient><linearGradient x1="0" y1="0.5" x2="1" y2="0.5" id="linearGradientSjglspix0fs"><stop offset="0%" stop-color="#f0a418"></stop><stop offset="100%" stop-color="#f0a418"></stop></linearGradient><linearGradient x1="0" y1="0.5" x2="1" y2="0.5" id="linearGradientSjglspix0fv"><stop offset="0%" stop-color="#f0a418"></stop><stop offset="100%" stop-color="#f0a418"></stop></linearGradient><linearGradient x1="0" y1="0.5" x2="1" y2="0.5" id="linearGradientSjglspix0fy"><stop offset="0%" stop-color="#f0a418"></stop><stop offset="100%" stop-color="#f0a418"></stop></linearGradient><linearGradient x1="0" y1="0.5" x2="1" y2="0.5" id="linearGradientSjglspix0g1"><stop offset="0%" stop-color="#f0a418"></stop><stop offset="100%" stop-color="#f0a418"></stop></linearGradient><linearGradient x1="0" y1="0.5" x2="1" y2="0.5" id="linearGradientSjglspix0g4"><stop offset="0%" stop-color="#f0a418"></stop><stop offset="100%" stop-color="#f0a418"></stop></linearGradient><linearGradient x1="0" y1="0.5" x2="1" y2="0.5" id="linearGradientSjglspix0g7"><stop offset="0%" stop-color="#f0a418"></stop><stop offset="100%" stop-color="#f0a418"></stop></linearGradient><linearGradient x1="0" y1="0.5" x2="1" y2="0.5" id="linearGradientSjglspix0ga"><stop offset="0%" stop-color="#f0a418"></stop><stop offset="100%" stop-color="#f0a418"></stop></linearGradient><linearGradient x1="0" y1="0.5" x2="1" y2="0.5" id="linearGradientSjglspix0gd"><stop offset="0%" stop-color="#f0a418"></stop><stop offset="100%" stop-color="#f0a418"></stop></linearGradient><linearGradient x1="0" y1="0.5" x2="1" y2="0.5" id="linearGradientSjglspix0gg"><stop offset="0%" stop-color="#f0a418"></stop><stop offset="100%" stop-color="#f0a418"></stop></linearGradient><linearGradient x1="0" y1="0.5" x2="1" y2="0.5" id="linearGradientSjglspix0gj"><stop offset="0%" stop-color="#f0a418"></stop><stop offset="100%" stop-color="#f0a418"></stop></linearGradient><linearGradient x1="0" y1="0.5" x2="1" y2="0.5" id="linearGradientSjglspix0gm"><stop offset="0%" stop-color="#f0a418"></stop><stop offset="100%" stop-color="#f0a418"></stop></linearGradient><linearGradient x1="0" y1="0.5" x2="1" y2="0.5" id="linearGradientSjglspix0gp"><stop offset="0%" stop-color="#f0a418"></stop><stop offset="100%" stop-color="#f0a418"></stop></linearGradient><linearGradient x1="0" y1="0.5" x2="1" y2="0.5" id="linearGradientSjglspix0gs"><stop offset="0%" stop-color="#f0a418"></stop><stop offset="100%" stop-color="#f0a418"></stop></linearGradient><linearGradient x1="0" y1="0.5" x2="1" y2="0.5" id="linearGradientSjglspix0gv"><stop offset="0%" stop-color="#f0a418"></stop><stop offset="100%" stop-color="#f0a418"></stop></linearGradient><linearGradient x1="0" y1="0.5" x2="1" y2="0.5" id="linearGradientSjglspix0gy"><stop offset="0%" stop-color="#f0a418"></stop><stop offset="100%" stop-color="#f0a418"></stop></linearGradient><linearGradient x1="0" y1="0.5" x2="1" y2="0.5" id="linearGradientSjglspix0h1"><stop offset="0%" stop-color="#f0a418"></stop><stop offset="100%" stop-color="#f0a418"></stop></linearGradient><linearGradient x1="0" y1="0.5" x2="1" y2="0.5" id="linearGradientSjglspix0h4"><stop offset="0%" stop-color="#f0a418"></stop><stop offset="100%" stop-color="#f0a418"></stop></linearGradient><linearGradient x1="0" y1="0.5" x2="1" y2="0.5" id="linearGradientSjglspix0h7"><stop offset="0%" stop-color="#f0a418"></stop><stop offset="100%" stop-color="#f0a418"></stop></linearGradient><linearGradient x1="0" y1="0.5" x2="1" y2="0.5" id="linearGradientSjglspix0ha"><stop offset="0%" stop-color="#f0a418"></stop><stop offset="100%" stop-color="#f0a418"></stop></linearGradient><linearGradient x1="0" y1="0.5" x2="1" y2="0.5" id="linearGradientSjglspix0hd"><stop offset="0%" stop-color="#f0a418"></stop><stop offset="100%" stop-color="#f0a418"></stop></linearGradient><linearGradient x1="0" y1="0.5" x2="1" y2="0.5" id="linearGradientSjglspix0hg"><stop offset="0%" stop-color="#f0a418"></stop><stop offset="100%" stop-color="#f0a418"></stop></linearGradient><linearGradient x1="0" y1="0.5" x2="1" y2="0.5" id="linearGradientSjglspix0hj"><stop offset="0%" stop-color="#f0a418"></stop><stop offset="100%" stop-color="#f0a418"></stop></linearGradient><linearGradient x1="0" y1="0.5" x2="1" y2="0.5" id="linearGradientSjglspix0hm"><stop offset="0%" stop-color="#f0a418"></stop><stop offset="100%" stop-color="#f0a418"></stop></linearGradient><linearGradient x1="0" y1="0.5" x2="1" y2="0.5" id="linearGradientSjglspix0hp"><stop offset="0%" stop-color="#f0a418"></stop><stop offset="100%" stop-color="#f0a418"></stop></linearGradient><linearGradient x1="0" y1="0.5" x2="1" y2="0.5" id="linearGradientSjglspix0hs"><stop offset="0%" stop-color="#f0a418"></stop><stop offset="100%" stop-color="#f0a418"></stop></linearGradient><linearGradient x1="0" y1="0.5" x2="1" y2="0.5" id="linearGradientSjglspix0hv"><stop offset="0%" stop-color="#f0a418"></stop><stop offset="100%" stop-color="#f0a418"></stop></linearGradient><linearGradient x1="0" y1="0.5" x2="1" y2="0.5" id="linearGradientSjglspix0hy"><stop offset="0%" stop-color="#f0a418"></stop><stop offset="100%" stop-color="#f0a418"></stop></linearGradient><linearGradient x1="0" y1="0.5" x2="1" y2="0.5" id="linearGradientSjglspix0i1"><stop offset="0%" stop-color="#f0a418"></stop><stop offset="100%" stop-color="#f0a418"></stop></linearGradient><linearGradient x1="0" y1="0.5" x2="1" y2="0.5" id="linearGradientSjglspix0i4"><stop offset="0%" stop-color="#f0a418"></stop><stop offset="100%" stop-color="#f0a418"></stop></linearGradient><linearGradient x1="0" y1="0.5" x2="1" y2="0.5" id="linearGradientSjglspix0i7"><stop offset="0%" stop-color="#f0a418"></stop><stop offset="100%" stop-color="#f0a418"></stop></linearGradient><linearGradient x1="0" y1="0.5" x2="1" y2="0.5" id="linearGradientSjglspix0ia"><stop offset="0%" stop-color="#f0a418"></stop><stop offset="100%" stop-color="#f0a418"></stop></linearGradient><linearGradient x1="0" y1="0.5" x2="1" y2="0.5" id="linearGradientSjglspix0id"><stop offset="0%" stop-color="#f0a418"></stop><stop offset="100%" stop-color="#f0a418"></stop></linearGradient><linearGradient x1="0" y1="0.5" x2="1" y2="0.5" id="linearGradientSjglspix0ig"><stop offset="0%" stop-color="#f0a418"></stop><stop offset="100%" stop-color="#f0a418"></stop></linearGradient><linearGradient x1="0" y1="0.5" x2="1" y2="0.5" id="linearGradientSjglspix0ij"><stop offset="0%" stop-color="#f0a418"></stop><stop offset="100%" stop-color="#f0a418"></stop></linearGradient><linearGradient x1="0" y1="0.5" x2="1" y2="0.5" id="linearGradientSjglspix0im"><stop offset="0%" stop-color="#f0a418"></stop><stop offset="100%" stop-color="#f0a418"></stop></linearGradient><linearGradient x1="0" y1="0.5" x2="1" y2="0.5" id="linearGradientSjglspix0ip"><stop offset="0%" stop-color="#f0a418"></stop><stop offset="100%" stop-color="#f0a418"></stop></linearGradient><linearGradient x1="0" y1="0.5" x2="1" y2="0.5" id="linearGradientSjglspix0is"><stop offset="0%" stop-color="#f0a418"></stop><stop offset="100%" stop-color="#f0a418"></stop></linearGradient><linearGradient x1="0" y1="0.5" x2="1" y2="0.5" id="linearGradientSjglspix0iv"><stop offset="0%" stop-color="#f0a418"></stop><stop offset="100%" stop-color="#f0a418"></stop></linearGradient><linearGradient x1="0" y1="0.5" x2="1" y2="0.5" id="linearGradientSjglspix0iy"><stop offset="0%" stop-color="#f0a418"></stop><stop offset="100%" stop-color="#f0a418"></stop></linearGradient><linearGradient x1="0" y1="0.5" x2="1" y2="0.5" id="linearGradientSjglspix0j1"><stop offset="0%" stop-color="#f0a418"></stop><stop offset="100%" stop-color="#f0a418"></stop></linearGradient><linearGradient x1="0" y1="0.5" x2="1" y2="0.5" id="linearGradientSjglspix0j4"><stop offset="0%" stop-color="#f0a418"></stop><stop offset="100%" stop-color="#f0a418"></stop></linearGradient><linearGradient x1="0" y1="0.5" x2="1" y2="0.5" id="linearGradientSjglspix0j7"><stop offset="0%" stop-color="#f0a418"></stop><stop offset="100%" stop-color="#f0a418"></stop></linearGradient><linearGradient x1="0" y1="0.5" x2="1" y2="0.5" id="linearGradientSjglspix0ja"><stop offset="0%" stop-color="#f0a418"></stop><stop offset="100%" stop-color="#f0a418"></stop></linearGradient><linearGradient x1="0" y1="0.5" x2="1" y2="0.5" id="linearGradientSjglspix0jd"><stop offset="0%" stop-color="#f0a418"></stop><stop offset="100%" stop-color="#f0a418"></stop></linearGradient><linearGradient x1="0" y1="0.5" x2="1" y2="0.5" id="linearGradientSjglspix0jg"><stop offset="0%" stop-color="#f0a418"></stop><stop offset="100%" stop-color="#f0a418"></stop></linearGradient><linearGradient x1="0" y1="0.5" x2="1" y2="0.5" id="linearGradientSjglspix0jj"><stop offset="0%" stop-color="#f0a418"></stop><stop offset="100%" stop-color="#f0a418"></stop></linearGradient><linearGradient x1="0" y1="0.5" x2="1" y2="0.5" id="linearGradientSjglspix0jm"><stop offset="0%" stop-color="#f0a418"></stop><stop offset="100%" stop-color="#f0a418"></stop></linearGradient><linearGradient x1="0" y1="0.5" x2="1" y2="0.5" id="linearGradientSjglspix0jp"><stop offset="0%" stop-color="#f0a418"></stop><stop offset="100%" stop-color="#f0a418"></stop></linearGradient><linearGradient x1="0" y1="0.5" x2="1" y2="0.5" id="linearGradientSjglspix0js"><stop offset="0%" stop-color="#f0a418"></stop><stop offset="100%" stop-color="#f0a418"></stop></linearGradient><linearGradient x1="0" y1="0.5" x2="1" y2="0.5" id="linearGradientSjglspix0jv"><stop offset="0%" stop-color="#f0a418"></stop><stop offset="100%" stop-color="#f0a418"></stop></linearGradient><linearGradient x1="0" y1="0.5" x2="1" y2="0.5" id="linearGradientSjglspix0jy"><stop offset="0%" stop-color="#f0a418"></stop><stop offset="100%" stop-color="#f0a418"></stop></linearGradient><linearGradient x1="0" y1="0.5" x2="1" y2="0.5" id="linearGradientSjglspix0k1"><stop offset="0%" stop-color="#f0a418"></stop><stop offset="100%" stop-color="#f0a418"></stop></linearGradient><linearGradient x1="0" y1="0.5" x2="1" y2="0.5" id="linearGradientSjglspix0k4"><stop offset="0%" stop-color="#f0a418"></stop><stop offset="100%" stop-color="#f0a418"></stop></linearGradient><linearGradient x1="0" y1="0.5" x2="1" y2="0.5" id="linearGradientSjglspix0k7"><stop offset="0%" stop-color="#1761a0"></stop><stop offset="100%" stop-color="#1761a0"></stop></linearGradient><linearGradient x1="0" y1="0.5" x2="1" y2="0.5" id="linearGradientSjglspix0ka"><stop offset="0%" stop-color="#1761a0"></stop><stop offset="100%" stop-color="#1761a0"></stop></linearGradient><linearGradient x1="0" y1="0.5" x2="1" y2="0.5" id="linearGradientSjglspix0kd"><stop offset="0%" stop-color="#1761a0"></stop><stop offset="100%" stop-color="#1761a0"></stop></linearGradient><linearGradient x1="0" y1="0.5" x2="1" y2="0.5" id="linearGradientSjglspix0kg"><stop offset="0%" stop-color="#1761a0"></stop><stop offset="100%" stop-color="#1761a0"></stop></linearGradient><linearGradient x1="0" y1="0.5" x2="1" y2="0.5" id="linearGradientSjglspix0kj"><stop offset="0%" stop-color="#f0a418"></stop><stop offset="100%" stop-color="#f0a418"></stop></linearGradient><linearGradient x1="0" y1="0.5" x2="1" y2="0.5" id="linearGradientSjglspix0km"><stop offset="0%" stop-color="#f0a418"></stop><stop offset="100%" stop-color="#f0a418"></stop></linearGradient><linearGradient x1="0" y1="0.5" x2="1" y2="0.5" id="linearGradientSjglspix0kp"><stop offset="0%" stop-color="#f0a418"></stop><stop offset="100%" stop-color="#f0a418"></stop></linearGradient><linearGradient x1="0" y1="0.5" x2="1" y2="0.5" id="linearGradientSjglspix0ks"><stop offset="0%" stop-color="#f0a418"></stop><stop offset="100%" stop-color="#f0a418"></stop></linearGradient><linearGradient x1="0" y1="0.5" x2="1" y2="0.5" id="linearGradientSjglspix0kv"><stop offset="0%" stop-color="#f0a418"></stop><stop offset="100%" stop-color="#f0a418"></stop></linearGradient><linearGradient x1="0" y1="0.5" x2="1" y2="0.5" id="linearGradientSjglspix0ky"><stop offset="0%" stop-color="#f0a418"></stop><stop offset="100%" stop-color="#f0a418"></stop></linearGradient><linearGradient x1="0" y1="0.5" x2="1" y2="0.5" id="linearGradientSjglspix0l1"><stop offset="0%" stop-color="#f0a418"></stop><stop offset="100%" stop-color="#f0a418"></stop></linearGradient><linearGradient x1="0" y1="0.5" x2="1" y2="0.5" id="linearGradientSjglspix0l4"><stop offset="0%" stop-color="#f0a418"></stop><stop offset="100%" stop-color="#f0a418"></stop></linearGradient><linearGradient x1="0" y1="0.5" x2="1" y2="0.5" id="linearGradientSjglspix0l7"><stop offset="0%" stop-color="#f0a418"></stop><stop offset="100%" stop-color="#f0a418"></stop></linearGradient><linearGradient x1="0" y1="0.5" x2="1" y2="0.5" id="linearGradientSjglspix0la"><stop offset="0%" stop-color="#f0a418"></stop><stop offset="100%" stop-color="#f0a418"></stop></linearGradient><linearGradient x1="0" y1="0.5" x2="1" y2="0.5" id="linearGradientSjglspix0ld"><stop offset="0%" stop-color="#f0a418"></stop><stop offset="100%" stop-color="#f0a418"></stop></linearGradient><linearGradient x1="0" y1="0.5" x2="1" y2="0.5" id="linearGradientSjglspix0lg"><stop offset="0%" stop-color="#f0a418"></stop><stop offset="100%" stop-color="#f0a418"></stop></linearGradient><linearGradient x1="0" y1="0.5" x2="1" y2="0.5" id="linearGradientSjglspix0lj"><stop offset="0%" stop-color="#f0a418"></stop><stop offset="100%" stop-color="#f0a418"></stop></linearGradient><linearGradient x1="0" y1="0.5" x2="1" y2="0.5" id="linearGradientSjglspix0lm"><stop offset="0%" stop-color="#f0a418"></stop><stop offset="100%" stop-color="#f0a418"></stop></linearGradient><linearGradient x1="0" y1="0.5" x2="1" y2="0.5" id="linearGradientSjglspix0lp"><stop offset="0%" stop-color="#f0a418"></stop><stop offset="100%" stop-color="#f0a418"></stop></linearGradient><linearGradient x1="0" y1="0.5" x2="1" y2="0.5" id="linearGradientSjglspix0ls"><stop offset="0%" stop-color="#f0a418"></stop><stop offset="100%" stop-color="#f0a418"></stop></linearGradient><linearGradient x1="0" y1="0.5" x2="1" y2="0.5" id="linearGradientSjglspix0lv"><stop offset="0%" stop-color="#f0a418"></stop><stop offset="100%" stop-color="#f0a418"></stop></linearGradient><linearGradient x1="0" y1="0.5" x2="1" y2="0.5" id="linearGradientSjglspix0ly"><stop offset="0%" stop-color="#f0a418"></stop><stop offset="100%" stop-color="#f0a418"></stop></linearGradient><linearGradient x1="0" y1="0.5" x2="1" y2="0.5" id="linearGradientSjglspix0m1"><stop offset="0%" stop-color="#f0a418"></stop><stop offset="100%" stop-color="#f0a418"></stop></linearGradient><linearGradient x1="0" y1="0.5" x2="1" y2="0.5" id="linearGradientSjglspix0m4"><stop offset="0%" stop-color="#f0a418"></stop><stop offset="100%" stop-color="#f0a418"></stop></linearGradient><linearGradient x1="0" y1="0.5" x2="1" y2="0.5" id="linearGradientSjglspix0m7"><stop offset="0%" stop-color="#f0a418"></stop><stop offset="100%" stop-color="#f0a418"></stop></linearGradient><linearGradient x1="0" y1="0.5" x2="1" y2="0.5" id="linearGradientSjglspix0ma"><stop offset="0%" stop-color="#f0a418"></stop><stop offset="100%" stop-color="#f0a418"></stop></linearGradient><linearGradient x1="0" y1="0.5" x2="1" y2="0.5" id="linearGradientSjglspix0md"><stop offset="0%" stop-color="#f0a418"></stop><stop offset="100%" stop-color="#f0a418"></stop></linearGradient><linearGradient x1="0" y1="0.5" x2="1" y2="0.5" id="linearGradientSjglspix0mg"><stop offset="0%" stop-color="#f0a418"></stop><stop offset="100%" stop-color="#f0a418"></stop></linearGradient><linearGradient x1="0" y1="0.5" x2="1" y2="0.5" id="linearGradientSjglspix0mj"><stop offset="0%" stop-color="#f0a418"></stop><stop offset="100%" stop-color="#f0a418"></stop></linearGradient><linearGradient x1="0" y1="0.5" x2="1" y2="0.5" id="linearGradientSjglspix0mm"><stop offset="0%" stop-color="#f0a418"></stop><stop offset="100%" stop-color="#f0a418"></stop></linearGradient><linearGradient x1="0" y1="0.5" x2="1" y2="0.5" id="linearGradientSjglspix0mp"><stop offset="0%" stop-color="#f0a418"></stop><stop offset="100%" stop-color="#f0a418"></stop></linearGradient><linearGradient x1="0" y1="0.5" x2="1" y2="0.5" id="linearGradientSjglspix0ms"><stop offset="0%" stop-color="#f0a418"></stop><stop offset="100%" stop-color="#f0a418"></stop></linearGradient><linearGradient x1="0" y1="0.5" x2="1" y2="0.5" id="linearGradientSjglspix0mv"><stop offset="0%" stop-color="#f0a418"></stop><stop offset="100%" stop-color="#f0a418"></stop></linearGradient><linearGradient x1="0" y1="0.5" x2="1" y2="0.5" id="linearGradientSjglspix0my"><stop offset="0%" stop-color="#f0a418"></stop><stop offset="100%" stop-color="#f0a418"></stop></linearGradient><linearGradient x1="0" y1="0.5" x2="1" y2="0.5" id="linearGradientSjglspix0n1"><stop offset="0%" stop-color="#f0a418"></stop><stop offset="100%" stop-color="#f0a418"></stop></linearGradient><linearGradient x1="0" y1="0.5" x2="1" y2="0.5" id="linearGradientSjglspix0n4"><stop offset="0%" stop-color="#f0a418"></stop><stop offset="100%" stop-color="#f0a418"></stop></linearGradient><linearGradient x1="0" y1="0.5" x2="1" y2="0.5" id="linearGradientSjglspix0n7"><stop offset="0%" stop-color="#f0a418"></stop><stop offset="100%" stop-color="#f0a418"></stop></linearGradient><linearGradient x1="0" y1="0.5" x2="1" y2="0.5" id="linearGradientSjglspix0na"><stop offset="0%" stop-color="#f0a418"></stop><stop offset="100%" stop-color="#f0a418"></stop></linearGradient><linearGradient x1="0" y1="0.5" x2="1" y2="0.5" id="linearGradientSjglspix0nd"><stop offset="0%" stop-color="#f0a418"></stop><stop offset="100%" stop-color="#f0a418"></stop></linearGradient><linearGradient x1="0" y1="0.5" x2="1" y2="0.5" id="linearGradientSjglspix0ng"><stop offset="0%" stop-color="#f0a418"></stop><stop offset="100%" stop-color="#f0a418"></stop></linearGradient><linearGradient x1="0" y1="0.5" x2="1" y2="0.5" id="linearGradientSjglspix0nj"><stop offset="0%" stop-color="#f0a418"></stop><stop offset="100%" stop-color="#f0a418"></stop></linearGradient><linearGradient x1="0" y1="0.5" x2="1" y2="0.5" id="linearGradientSjglspix0nm"><stop offset="0%" stop-color="#f0a418"></stop><stop offset="100%" stop-color="#f0a418"></stop></linearGradient><linearGradient x1="0" y1="0.5" x2="1" y2="0.5" id="linearGradientSjglspix0np"><stop offset="0%" stop-color="#f0a418"></stop><stop offset="100%" stop-color="#f0a418"></stop></linearGradient><linearGradient x1="0" y1="0.5" x2="1" y2="0.5" id="linearGradientSjglspix0ns"><stop offset="0%" stop-color="#f0a418"></stop><stop offset="100%" stop-color="#f0a418"></stop></linearGradient><linearGradient x1="0" y1="0.5" x2="1" y2="0.5" id="linearGradientSjglspix0nv"><stop offset="0%" stop-color="#f0a418"></stop><stop offset="100%" stop-color="#f0a418"></stop></linearGradient><linearGradient x1="0" y1="0.5" x2="1" y2="0.5" id="linearGradientSjglspix0ny"><stop offset="0%" stop-color="#f0a418"></stop><stop offset="100%" stop-color="#f0a418"></stop></linearGradient><linearGradient x1="0" y1="0.5" x2="1" y2="0.5" id="linearGradientSjglspix0o1"><stop offset="0%" stop-color="#f0a418"></stop><stop offset="100%" stop-color="#f0a418"></stop></linearGradient><linearGradient x1="0" y1="0.5" x2="1" y2="0.5" id="linearGradientSjglspix0o4"><stop offset="0%" stop-color="#f0a418"></stop><stop offset="100%" stop-color="#f0a418"></stop></linearGradient><linearGradient x1="0" y1="0.5" x2="1" y2="0.5" id="linearGradientSjglspix0o7"><stop offset="0%" stop-color="#f0a418"></stop><stop offset="100%" stop-color="#f0a418"></stop></linearGradient><linearGradient x1="0" y1="0.5" x2="1" y2="0.5" id="linearGradientSjglspix0oa"><stop offset="0%" stop-color="#f0a418"></stop><stop offset="100%" stop-color="#f0a418"></stop></linearGradient><linearGradient x1="0" y1="0.5" x2="1" y2="0.5" id="linearGradientSjglspix0od"><stop offset="0%" stop-color="#f0a418"></stop><stop offset="100%" stop-color="#f0a418"></stop></linearGradient><linearGradient x1="0" y1="0.5" x2="1" y2="0.5" id="linearGradientSjglspix0og"><stop offset="0%" stop-color="#f0a418"></stop><stop offset="100%" stop-color="#f0a418"></stop></linearGradient><linearGradient x1="0" y1="0.5" x2="1" y2="0.5" id="linearGradientSjglspix0oj"><stop offset="0%" stop-color="#f0a418"></stop><stop offset="100%" stop-color="#f0a418"></stop></linearGradient><linearGradient x1="0" y1="0.5" x2="1" y2="0.5" id="linearGradientSjglspix0om"><stop offset="0%" stop-color="#f0a418"></stop><stop offset="100%" stop-color="#f0a418"></stop></linearGradient><linearGradient x1="0" y1="0.5" x2="1" y2="0.5" id="linearGradientSjglspix0op"><stop offset="0%" stop-color="#f0a418"></stop><stop offset="100%" stop-color="#f0a418"></stop></linearGradient><linearGradient x1="0" y1="0.5" x2="1" y2="0.5" id="linearGradientSjglspix0os"><stop offset="0%" stop-color="#f0a418"></stop><stop offset="100%" stop-color="#f0a418"></stop></linearGradient><linearGradient x1="0" y1="0.5" x2="1" y2="0.5" id="linearGradientSjglspix0ov"><stop offset="0%" stop-color="#f0a418"></stop><stop offset="100%" stop-color="#f0a418"></stop></linearGradient><linearGradient x1="0" y1="0.5" x2="1" y2="0.5" id="linearGradientSjglspix0oy"><stop offset="0%" stop-color="#f0a418"></stop><stop offset="100%" stop-color="#f0a418"></stop></linearGradient><linearGradient x1="0" y1="0.5" x2="1" y2="0.5" id="linearGradientSjglspix0p1"><stop offset="0%" stop-color="#1761a0"></stop><stop offset="100%" stop-color="#1761a0"></stop></linearGradient><linearGradient x1="0" y1="0.5" x2="1" y2="0.5" id="linearGradientSjglspix0p4"><stop offset="0%" stop-color="#1761a0"></stop><stop offset="100%" stop-color="#1761a0"></stop></linearGradient><linearGradient x1="0" y1="0.5" x2="1" y2="0.5" id="linearGradientSjglspix0p7"><stop offset="0%" stop-color="#1761a0"></stop><stop offset="100%" stop-color="#1761a0"></stop></linearGradient></defs><g class="background-part"><rect x="0" y="0" width="906" height="664.2" fill="rgba(255,255,255,0.25)" style=""></rect></g><g class="selector-part"></g><g class="selector-part"><rect x="0" y="0" width="906" height="664.2" fill="rgba(255,255,255,0)" style="transition: 0.6s;"></rect></g><rect x="0" y="0" width="0" height="0" fill="rgba(168,202,236,0.5)" stroke="#3399ff" style="stroke-width: 1;"></rect><g class="selector-part" transform="matrix(1,0,0,1,242,264)"><rect x="0" y="0" width="0" height="0" fill="rgba(255,255,255,0)" style="cursor: move;"></rect></g><g class="svg-clip svg-visible" style="cursor: move; opacity: 1;" transform="matrix(1,0,0,1,273.5,310)"><rect x="0" y="0" width="103" height="28" fill="none" style="" class="svg-hitbox"></rect><svg width="103.342" height="28.381174153525834" viewBox="1.6580000000000004,34.73682584647417,103.342,28.381174153525834"><desc>Created with Snap</desc><defs></defs><g></g><g><path d="M81.876,41.127c6.515,0,12.67,1.032,18.124,2.865c-10.263-0.016-32.166,0.982-46.332,14.126  C37.1,46.861,25.551,41.55,6.658,43.789c11.988-6.911,34.706-4.896,46.437,5.387C60.44,44.206,70.622,41.127,81.876,41.127  L81.876,41.127z" fill="url('#linearGradientSjglspix0kg')"></path></g></svg></g><g class="svg-clip svg-visible" style="cursor: move; opacity: 1;" transform="matrix(1,0,0,1,306,270)"><rect x="0" y="0" width="10" height="20" fill="none" style="" class="svg-hitbox"></rect><svg width="10.702999999999996" height="20.320999999999998" viewBox="34.658,-5.118,10.702999999999996,20.320999999999998"><desc>Created with Snap</desc><defs></defs><g></g><g><polygon points="40.009,10.203 40.361,8.414 40.009,-0.118 39.658,8.414 " fill="url('#linearGradientSjglspix0kj')"></polygon></g></svg></g><g class="svg-clip svg-visible" style="cursor: move; opacity: 1;" transform="matrix(1,0,0,1,277.5,281.5)"><rect x="0" y="0" width="67" height="45" fill="none" style="" class="svg-hitbox"></rect><svg width="67.713" height="45.797" viewBox="6.141999999999989,6.348000000000001,67.713,45.797"><desc>Created with Snap</desc><defs></defs><g></g><g><path d="M39.995,11.348c15.94,0,28.86,12.922,28.86,28.86l-0.003,0.275c-6.101,1.36-11.557,3.668-15.982,6.662  c-10.332-9.055-29.187-11.697-41.728-7.476C11.429,23.979,24.235,11.348,39.995,11.348L39.995,11.348z" fill="url('#linearGradientSjglspix0km')"></path></g></svg></g><g class="svg-clip svg-visible" style="cursor: move; opacity: 1;" transform="matrix(1,0,0,1,268,310)"><rect x="0" y="0" width="12" height="10" fill="none" style="" class="svg-hitbox"></rect><svg width="12.033999999999999" height="10.403999999999996" viewBox="-3.2270000000000003,34.432,12.033999999999999,10.403999999999996"><desc>Created with Snap</desc><defs></defs><g></g><g><polygon points="3.807,39.652 2.786,39.432 1.773,39.619 2.775,39.836 3.807,39.652 " fill="url('#linearGradientSjglspix0kp')"></polygon></g></svg></g><g class="svg-clip svg-visible" style="cursor: move; opacity: 1;" transform="matrix(1,0,0,1,270.5,310)"><rect x="0" y="0" width="15" height="10" fill="none" style="" class="svg-hitbox"></rect><svg width="15.937000000000001" height="10.408000000000001" viewBox="-0.9509999999999996,34.53,15.937000000000001,10.408000000000001"><desc>Created with Snap</desc><defs></defs><g></g><g><polygon points="9.986,39.749 8.96,39.53 4.049,39.656 8.957,39.938 " fill="url('#linearGradientSjglspix0ks')"></polygon></g></svg></g><g class="svg-clip svg-visible" style="cursor: move; opacity: 1;" transform="matrix(1,0,0,1,298,271)"><rect x="0" y="0" width="12" height="20" fill="none" style="" class="svg-hitbox"></rect><svg width="12.144000000000002" height="20.096" viewBox="26.623,-4.223,12.144000000000002,20.096"><desc>Created with Snap</desc><defs></defs><g></g><g><polygon points="33.767,10.873 33.742,9.052 31.623,0.777 33.052,9.196 33.767,10.873 " fill="url('#linearGradientSjglspix0kv')"></polygon></g></svg></g><g class="svg-clip svg-visible" style="cursor: move; opacity: 1;" transform="matrix(1,0,0,1,302,272)"><rect x="0" y="0" width="10" height="12" fill="none" style="" class="svg-hitbox"></rect><svg width="10.400999999999996" height="12.016" viewBox="30.384,-2.775,10.400999999999996,12.016"><desc>Created with Snap</desc><defs></defs><g></g><g><polygon points="35.71,4.241 35.785,3.199 35.46,2.225 35.384,3.248 35.71,4.241 " fill="url('#linearGradientSjglspix0ky')"></polygon></g></svg></g><g class="svg-clip svg-visible" style="cursor: move; opacity: 1;" transform="matrix(1,0,0,1,303,275.5)"><rect x="0" y="0" width="10" height="15" fill="none" style="" class="svg-hitbox"></rect><svg width="10.817" height="15.891000000000002" viewBox="30.741999999999997,-0.5170000000000003,10.817,15.891000000000002"><desc>Created with Snap</desc><defs></defs><g></g><g><polygon points="36.487,10.374 36.559,9.326 35.742,4.483 36.155,9.38 " fill="url('#linearGradientSjglspix0l1')"></polygon></g></svg></g><g class="svg-clip svg-visible" style="cursor: move; opacity: 1;" transform="matrix(1,0,0,1,291.5,273.5)"><rect x="0" y="0" width="13" height="19" fill="none" style="" class="svg-hitbox"></rect><svg width="13.904999999999998" height="19.555" viewBox="19.751,-2.092,13.904999999999998,19.555"><desc>Created with Snap</desc><defs></defs><g></g><g><polygon points="28.656,12.463 28.308,10.675 24.751,2.908 27.654,10.938 28.656,12.463 " fill="url('#linearGradientSjglspix0l4')"></polygon></g></svg></g><g class="svg-clip svg-visible" style="cursor: move; opacity: 1;" transform="matrix(1,0,0,1,296,274.5)"><rect x="0" y="0" width="10" height="11" fill="none" style="" class="svg-hitbox"></rect><svg width="10.606000000000002" height="11.94" viewBox="23.784,-1.35,10.606000000000002,11.94"><desc>Created with Snap</desc><defs></defs><g></g><g><polygon points="29.39,5.59 29.278,4.552 28.784,3.65 28.892,4.671 " fill="url('#linearGradientSjglspix0l7')"></polygon></g></svg></g><g class="svg-clip svg-visible" style="cursor: move; opacity: 1;" transform="matrix(1,0,0,1,296.5,276.5)"><rect x="0" y="0" width="11" height="15" fill="none" style="" class="svg-hitbox"></rect><svg width="11.780999999999999" height="15.664" viewBox="24.463,0.8239999999999998,11.780999999999999,15.664"><desc>Created with Snap</desc><defs></defs><g></g><g><polygon points="31.244,11.488 31.128,10.444 29.463,5.824 30.741,10.571 " fill="url('#linearGradientSjglspix0la')"></polygon></g></svg></g><g class="svg-clip svg-visible" style="cursor: move; opacity: 1;" transform="matrix(1,0,0,1,285.5,277)"><rect x="0" y="0" width="15" height="18" fill="none" style="" class="svg-hitbox"></rect><svg width="15.539000000000001" height="18.709" viewBox="13.369,1.2270000000000003,15.539000000000001,18.709"><desc>Created with Snap</desc><defs></defs><g></g><g><polygon points="23.908,14.936 23.248,13.239 18.369,6.227 22.652,13.613 23.908,14.936 " fill="url('#linearGradientSjglspix0ld')"></polygon></g></svg></g><g class="svg-clip svg-visible" style="cursor: move; opacity: 1;" transform="matrix(1,0,0,1,289,276.5)"><rect x="0" y="0" width="10" height="11" fill="none" style="" class="svg-hitbox"></rect><svg width="10.940999999999999" height="11.801" viewBox="17.469,1.2409999999999997,10.940999999999999,11.801"><desc>Created with Snap</desc><defs></defs><g></g><g><polygon points="23.41,8.042 23.115,7.04 22.469,6.241 22.757,7.226 23.41,8.042 " fill="url('#linearGradientSjglspix0lg')"></polygon></g></svg></g><g class="svg-clip svg-visible" style="cursor: move; opacity: 1;" transform="matrix(1,0,0,1,290,278.5)"><rect x="0" y="0" width="12" height="15" fill="none" style="" class="svg-hitbox"></rect><svg width="12.756999999999998" height="15.260000000000002" viewBox="18.524,3.257999999999999,12.756999999999998,15.260000000000002"><desc>Created with Snap</desc><defs></defs><g></g><g><polygon points="26.281,13.518 25.981,12.511 23.524,8.258 25.624,12.703 " fill="url('#linearGradientSjglspix0lj')"></polygon></g></svg></g><g class="svg-clip svg-visible" style="cursor: move; opacity: 1;" transform="matrix(1,0,0,1,279.5,281.5)"><rect x="0" y="0" width="17" height="17" fill="none" style="" class="svg-hitbox"></rect><svg width="17" height="17.586" viewBox="7.676,5.6259999999999994,17,17.586"><desc>Created with Snap</desc><defs></defs><g></g><g><polygon points="19.676,18.212 18.724,16.659 12.676,10.626 18.205,17.134 19.676,18.212 " fill="url('#linearGradientSjglspix0lm')"></polygon></g></svg></g><g class="svg-clip svg-visible" style="cursor: move; opacity: 1;" transform="matrix(1,0,0,1,283.5,280.5)"><rect x="0" y="0" width="11" height="11" fill="none" style="" class="svg-hitbox"></rect><svg width="11.245000000000001" height="11.604999999999999" viewBox="11.715,4.912000000000001,11.245000000000001,11.604999999999999"><desc>Created with Snap</desc><defs></defs><g></g><g><polygon points="17.96,11.517 17.493,10.584 16.715,9.912 17.173,10.83 " fill="url('#linearGradientSjglspix0lp')"></polygon></g></svg></g><g class="svg-clip svg-visible" style="cursor: move; opacity: 1;" transform="matrix(1,0,0,1,284.5,282)"><rect x="0" y="0" width="13" height="14" fill="none" style="" class="svg-hitbox"></rect><svg width="13.648" height="14.684999999999999" viewBox="13.11,6.710000000000001,13.648,14.684999999999999"><desc>Created with Snap</desc><defs></defs><g></g><g><polygon points="21.758,16.395 21.286,15.458 18.11,11.71 20.967,15.709 " fill="url('#linearGradientSjglspix0ls')"></polygon></g></svg></g><g class="svg-clip svg-visible" style="cursor: move; opacity: 1;" transform="matrix(1,0,0,1,274,286)"><rect x="0" y="0" width="18" height="16" fill="none" style="" class="svg-hitbox"></rect><svg width="18.235" height="16.22" viewBox="2.857,10.969,18.235,16.22"><desc>Created with Snap</desc><defs></defs><g></g><g><polygon points="16.092,22.189 14.881,20.83 7.857,15.969 14.454,21.39 16.092,22.189 " fill="url('#linearGradientSjglspix0lv')"></polygon></g></svg></g><g class="svg-clip svg-visible" style="cursor: move; opacity: 1;" transform="matrix(1,0,0,1,278.5,284.5)"><rect x="0" y="0" width="11" height="11" fill="none" style="" class="svg-hitbox"></rect><svg width="11.512" height="11.358" viewBox="6.702999999999999,9.548,11.512,11.358"><desc>Created with Snap</desc><defs></defs><g></g><g><polygon points="13.215,15.906 12.589,15.069 11.703,14.548 12.317,15.369 " fill="url('#linearGradientSjglspix0ly')"></polygon></g></svg></g><g class="svg-clip svg-visible" style="cursor: move; opacity: 1;" transform="matrix(1,0,0,1,280,286.5)"><rect x="0" y="0" width="14" height="13" fill="none" style="" class="svg-hitbox"></rect><svg width="14.421999999999999" height="13.962" viewBox="8.397,11.068000000000001,14.421999999999999,13.962"><desc>Created with Snap</desc><defs></defs><g></g><g><polygon points="17.819,20.03 17.188,19.191 13.397,16.068 16.918,19.498 " fill="url('#linearGradientSjglspix0m1')"></polygon></g></svg></g><g class="svg-clip svg-visible" style="cursor: move; opacity: 1;" transform="matrix(1,0,0,1,270.5,293)"><rect x="0" y="0" width="19" height="14" fill="none" style="" class="svg-hitbox"></rect><svg width="19.209" height="14.658000000000001" viewBox="-0.9359999999999999,17.081,19.209,14.658000000000001"><desc>Created with Snap</desc><defs></defs><g></g><g><polygon points="13.273,26.739 11.839,25.617 4.064,22.081 11.519,26.244 " fill="url('#linearGradientSjglspix0m4')"></polygon></g></svg></g><g class="svg-clip svg-visible" style="cursor: move; opacity: 1;" transform="matrix(1,0,0,1,274.5,290.5)"><rect x="0" y="0" width="11" height="11" fill="none" style="" class="svg-hitbox"></rect><svg width="11.731000000000002" height="11.068999999999999" viewBox="2.5949999999999998,14.998000000000001,11.731000000000002,11.068999999999999"><desc>Created with Snap</desc><defs></defs><g></g><g><polygon points="9.326,21.067 8.561,20.356 7.595,19.998 8.347,20.698 " fill="url('#linearGradientSjglspix0m7')"></polygon></g></svg></g><g class="svg-clip svg-visible" style="cursor: move; opacity: 1;" transform="matrix(1,0,0,1,275.5,291.5)"><rect x="0" y="0" width="15" height="13" fill="none" style="" class="svg-hitbox"></rect><svg width="15.057" height="13.113" viewBox="4.532,16.195,15.057,13.113"><desc>Created with Snap</desc><defs></defs><g></g><g><polygon points="14.589,24.308 13.819,23.595 9.532,21.195 13.607,23.943 " fill="url('#linearGradientSjglspix0ma')"></polygon></g></svg></g><g class="svg-clip svg-visible" style="cursor: move; opacity: 1;" transform="matrix(1,0,0,1,268.5,299)"><rect x="0" y="0" width="19" height="12" fill="none" style="" class="svg-hitbox"></rect><svg width="19.892" height="12.949000000000002" viewBox="-3.584,23.769,19.892,12.949000000000002"><desc>Created with Snap</desc><defs></defs><g></g><g><polygon points="11.308,31.718 9.697,30.868 1.416,28.769 9.494,31.543 11.308,31.718 " fill="url('#linearGradientSjglspix0md')"></polygon></g></svg></g><g class="svg-clip svg-visible" style="cursor: move; opacity: 1;" transform="matrix(1,0,0,1,271.5,297)"><rect x="0" y="0" width="11" height="10" fill="none" style="" class="svg-hitbox"></rect><svg width="11.894" height="10.745000000000001" viewBox="-0.47799999999999976,21.093,11.894,10.745000000000001"><desc>Created with Snap</desc><defs></defs><g></g><g><polygon points="6.416,26.838 5.536,26.274 4.522,26.093 5.386,26.647 " fill="url('#linearGradientSjglspix0mg')"></polygon></g></svg></g><g class="svg-clip svg-visible" style="cursor: move; opacity: 1;" transform="matrix(1,0,0,1,273.5,297)"><rect x="0" y="0" width="15" height="12" fill="none" style="" class="svg-hitbox"></rect><svg width="15.529" height="12.165" viewBox="1.641,21.927,15.529,12.165"><desc>Created with Snap</desc><defs></defs><g></g><g><polygon points="12.17,29.092 11.285,28.527 6.641,26.927 11.139,28.907 12.17,29.092 " fill="url('#linearGradientSjglspix0mj')"></polygon></g></svg></g><g class="svg-clip svg-visible" style="cursor: move; opacity: 1;" transform="matrix(1,0,0,1,267,306.5)"><rect x="0" y="0" width="20" height="11" fill="none" style="" class="svg-hitbox"></rect><svg width="20.259" height="11.294999999999995" viewBox="-5,30.822000000000003,20.259,11.294999999999995"><desc>Created with Snap</desc><defs></defs><g></g><g><polygon points="10.259,36.968 8.521,36.417 0,35.822 8.441,37.117 10.259,36.968 " fill="url('#linearGradientSjglspix0mm')"></polygon></g></svg></g><g class="svg-clip svg-visible" style="cursor: move; opacity: 1;" transform="matrix(1,0,0,1,269.5,303)"><rect x="0" y="0" width="11" height="10" fill="none" style="" class="svg-hitbox"></rect><svg width="11.997" height="10.398000000000003" viewBox="-2.42,27.634999999999998,11.997,10.398000000000003"><desc>Created with Snap</desc><defs></defs><g></g><g><polygon points="4.577,33.033 3.61,32.635 2.58,32.638 3.529,33.03 4.577,33.033 " fill="url('#linearGradientSjglspix0mp')"></polygon></g></svg></g><g class="svg-clip svg-visible" style="cursor: move; opacity: 1;" transform="matrix(1,0,0,1,271.5,303.5)"><rect x="0" y="0" width="15" height="11" fill="none" style="" class="svg-hitbox"></rect><svg width="15.827" height="11.148999999999994" viewBox="-0.18599999999999994,28.081000000000003,15.827,11.148999999999994"><desc>Created with Snap</desc><defs></defs><g></g><g><polygon points="10.641,34.229 9.668,33.832 4.814,33.081 9.593,34.23 10.641,34.229 " fill="url('#linearGradientSjglspix0ms')"></polygon></g></svg></g><g class="svg-clip svg-visible" style="cursor: move; opacity: 1;" transform="matrix(1,0,0,1,336,304.5)"><rect x="0" y="0" width="20" height="11" fill="none" style="" class="svg-hitbox"></rect><svg width="20.218999999999994" height="11.554000000000002" viewBox="64.778,29.433,20.218999999999994,11.554000000000002"><desc>Created with Snap</desc><defs></defs><g></g><g><polygon points="69.778,35.89 71.599,35.987 79.997,34.433 71.499,35.291 69.778,35.89 " fill="url('#linearGradientSjglspix0mv')"></polygon></g></svg></g><g class="svg-clip svg-visible" style="cursor: move; opacity: 1;" transform="matrix(1,0,0,1,343,308)"><rect x="0" y="0" width="12" height="10" fill="none" style="" class="svg-hitbox"></rect><svg width="12.033999999999992" height="10.402999999999999" viewBox="71.263,33.02,12.033999999999992,10.402999999999999"><desc>Created with Snap</desc><defs></defs><g></g><g><polygon points="76.263,38.281 77.303,38.423 78.297,38.162 77.278,38.02 " fill="url('#linearGradientSjglspix0my')"></polygon></g></svg></g><g class="svg-clip svg-visible" style="cursor: move; opacity: 1;" transform="matrix(1,0,0,1,336.5,309)"><rect x="0" y="0" width="15" height="10" fill="none" style="" class="svg-hitbox"></rect><svg width="15.926000000000002" height="10.486000000000004" viewBox="65.094,33.293,15.926000000000002,10.486000000000004"><desc>Created with Snap</desc><defs></defs><g></g><g><polygon points="70.094,38.634 71.131,38.779 76.02,38.293 71.108,38.375 " fill="url('#linearGradientSjglspix0n1')"></polygon></g></svg></g><g class="svg-clip svg-visible" style="cursor: move; opacity: 1;" transform="matrix(1,0,0,1,335.5,297.5)"><rect x="0" y="0" width="19" height="13" fill="none" style="" class="svg-hitbox"></rect><svg width="19.795999999999992" height="13.247999999999998" viewBox="63.540000000000006,22.434,19.795999999999992,13.247999999999998"><desc>Created with Snap</desc><defs></defs><g></g><g><polygon points="68.54,30.682 70.347,30.455 78.336,27.434 70.127,29.787 " fill="url('#linearGradientSjglspix0n4')"></polygon></g></svg></g><g class="svg-clip svg-visible" style="cursor: move; opacity: 1;" transform="matrix(1,0,0,1,342.5,302)"><rect x="0" y="0" width="11" height="10" fill="none" style="" class="svg-hitbox"></rect><svg width="11.97999999999999" height="10.477999999999998" viewBox="70.346,26.405,11.97999999999999,10.477999999999998"><desc>Created with Snap</desc><defs></defs><g></g><g><polygon points="75.346,31.883 76.393,31.839 77.326,31.405 76.298,31.444 " fill="url('#linearGradientSjglspix0n7')"></polygon></g></svg></g><g class="svg-clip svg-visible" style="cursor: move; opacity: 1;" transform="matrix(1,0,0,1,336.5,302.5)"><rect x="0" y="0" width="15" height="11" fill="none" style="" class="svg-hitbox"></rect><svg width="15.772000000000006" height="11.390000000000004" viewBox="64.335,26.938,15.772000000000006,11.390000000000004"><desc>Created with Snap</desc><defs></defs><g></g><g><polygon points="69.335,33.328 70.384,33.285 75.107,31.938 70.288,32.893 69.335,33.328 " fill="url('#linearGradientSjglspix0na')"></polygon></g></svg></g><g class="svg-clip svg-visible" style="cursor: move; opacity: 1;" transform="matrix(1,0,0,1,332.5,292)"><rect x="0" y="0" width="19" height="14" fill="none" style="" class="svg-hitbox"></rect><svg width="19.061999999999998" height="14.937000000000001" viewBox="61.394999999999996,15.84,19.061999999999998,14.937000000000001"><desc>Created with Snap</desc><defs></defs><g></g><g><polygon points="66.395,25.777 68.133,25.233 75.457,20.84 67.797,24.617 66.395,25.777 " fill="url('#linearGradientSjglspix0nd')"></polygon></g></svg></g><g class="svg-clip svg-visible" style="cursor: move; opacity: 1;" transform="matrix(1,0,0,1,340.5,296)"><rect x="0" y="0" width="11" height="10" fill="none" style="" class="svg-hitbox"></rect><svg width="11.861999999999995" height="10.820999999999998" viewBox="68.307,19.928,11.861999999999995,10.820999999999998"><desc>Created with Snap</desc><defs></defs><g></g><g><polygon points="73.307,25.749 74.327,25.52 75.169,24.928 74.165,25.149 " fill="url('#linearGradientSjglspix0ng')"></polygon></g></svg></g><g class="svg-clip svg-visible" style="cursor: move; opacity: 1;" transform="matrix(1,0,0,1,334.5,296)"><rect x="0" y="0" width="15" height="12" fill="none" style="" class="svg-hitbox"></rect><svg width="15.433999999999997" height="12.393999999999998" viewBox="62.647000000000006,20.846,15.433999999999997,12.393999999999998"><desc>Created with Snap</desc><defs></defs><g></g><g><polygon points="67.647,28.24 68.672,28.012 73.081,25.846 68.508,27.643 " fill="url('#linearGradientSjglspix0nj')"></polygon></g></svg></g><g class="svg-clip svg-visible" style="cursor: move; opacity: 1;" transform="matrix(1,0,0,1,330,285)"><rect x="0" y="0" width="18" height="16" fill="none" style="" class="svg-hitbox"></rect><svg width="18.041000000000004" height="16.47" viewBox="58.412,9.863,18.041000000000004,16.47"><desc>Created with Snap</desc><defs></defs><g></g><g><polygon points="63.412,21.333 65.027,20.488 71.453,14.863 64.587,19.94 " fill="url('#linearGradientSjglspix0nm')"></polygon></g></svg></g><g class="svg-clip svg-visible" style="cursor: move; opacity: 1;" transform="matrix(1,0,0,1,336.5,289.5)"><rect x="0" y="0" width="11" height="11" fill="none" style="" class="svg-hitbox"></rect><svg width="11.686999999999998" height="11.14" viewBox="65.209,13.937999999999999,11.686999999999998,11.14"><desc>Created with Snap</desc><defs></defs><g></g><g><polygon points="70.209,20.078 71.174,19.668 71.896,18.938 70.948,19.335 " fill="url('#linearGradientSjglspix0np')"></polygon></g></svg></g><g class="svg-clip svg-visible" style="cursor: move; opacity: 1;" transform="matrix(1,0,0,1,332,290.5)"><rect x="0" y="0" width="14" height="13" fill="none" style="" class="svg-hitbox"></rect><svg width="14.920999999999992" height="13.322" viewBox="60.084,15.212,14.920999999999992,13.322"><desc>Created with Snap</desc><defs></defs><g></g><g><polygon points="65.084,23.534 66.05,23.127 70.005,20.212 65.824,22.792 " fill="url('#linearGradientSjglspix0ns')"></polygon></g></svg></g><g class="svg-clip svg-visible" style="cursor: move; opacity: 1;" transform="matrix(1,0,0,1,326,280.5)"><rect x="0" y="0" width="16" height="17" fill="none" style="" class="svg-hitbox"></rect><svg width="16.76299999999999" height="17.793999999999997" viewBox="54.688,4.694000000000001,16.76299999999999,17.793999999999997"><desc>Created with Snap</desc><defs></defs><g></g><g><polygon points="59.688,17.488 61.125,16.37 66.451,9.694 60.596,15.909 59.688,17.488 " fill="url('#linearGradientSjglspix0nv')"></polygon></g></svg></g><g class="svg-clip svg-visible" style="cursor: move; opacity: 1;" transform="matrix(1,0,0,1,332.5,284.5)"><rect x="0" y="0" width="11" height="11" fill="none" style="" class="svg-hitbox"></rect><svg width="11.456999999999994" height="11.422" viewBox="61.153000000000006,8.623,11.456999999999994,11.422"><desc>Created with Snap</desc><defs></defs><g></g><g><polygon points="66.153,15.045 67.031,14.472 67.61,13.623 66.75,14.183 66.153,15.045 " fill="url('#linearGradientSjglspix0ny')"></polygon></g></svg></g><g class="svg-clip svg-visible" style="cursor: move; opacity: 1;" transform="matrix(1,0,0,1,328,286)"><rect x="0" y="0" width="14" height="14" fill="none" style="" class="svg-hitbox"></rect><svg width="14.253000000000007" height="14.142" viewBox="56.724,10.215,14.253000000000007,14.142"><desc>Created with Snap</desc><defs></defs><g></g><g><polygon points="61.724,19.357 62.602,18.785 65.977,15.215 62.319,18.496 " fill="url('#linearGradientSjglspix0o1')"></polygon></g></svg></g><g class="svg-clip svg-visible" style="cursor: move; opacity: 1;" transform="matrix(1,0,0,1,321.5,276)"><rect x="0" y="0" width="15" height="18" fill="none" style="" class="svg-hitbox"></rect><svg width="15.268999999999998" height="18.873" viewBox="50.34,0.4939999999999998,15.268999999999998,18.873"><desc>Created with Snap</desc><defs></defs><g></g><g><polygon points="55.34,14.367 56.556,13.011 60.609,5.494 55.952,12.652 55.34,14.367 " fill="url('#linearGradientSjglspix0o4')"></polygon></g></svg></g><g class="svg-clip svg-visible" style="cursor: move; opacity: 1;" transform="matrix(1,0,0,1,327.5,279.5)"><rect x="0" y="0" width="11" height="11" fill="none" style="" class="svg-hitbox"></rect><svg width="11.181000000000004" height="11.658" viewBox="56.269,4.156000000000001,11.181000000000004,11.658"><desc>Created with Snap</desc><defs></defs><g></g><g><polygon points="61.269,10.814 62.03,10.094 62.45,9.156 61.701,9.86 " fill="url('#linearGradientSjglspix0o7')"></polygon></g></svg></g><g class="svg-clip svg-visible" style="cursor: move; opacity: 1;" transform="matrix(1,0,0,1,324.5,282)"><rect x="0" y="0" width="13" height="14" fill="none" style="" class="svg-hitbox"></rect><svg width="13.448999999999998" height="14.833" viewBox="52.676,6.0120000000000005,13.448999999999998,14.833"><desc>Created with Snap</desc><defs></defs><g></g><g><polygon points="57.676,15.845 58.438,15.125 61.125,11.012 58.108,14.892 " fill="url('#linearGradientSjglspix0oa')"></polygon></g></svg></g><g class="svg-clip svg-visible" style="cursor: move; opacity: 1;" transform="matrix(1,0,0,1,317.5,272.5)"><rect x="0" y="0" width="13" height="19" fill="none" style="" class="svg-hitbox"></rect><svg width="13.61" height="19.668" viewBox="45.506,-2.6,13.61,19.668"><desc>Created with Snap</desc><defs></defs><g></g><g><polygon points="50.506,12.068 51.462,10.518 54.116,2.4 50.803,10.272 50.506,12.068 " fill="url('#linearGradientSjglspix0od')"></polygon></g></svg></g><g class="svg-clip svg-visible" style="cursor: move; opacity: 1;" transform="matrix(1,0,0,1,323,276.5)"><rect x="0" y="0" width="10" height="11" fill="none" style="" class="svg-hitbox"></rect><svg width="10.867999999999995" height="11.843" viewBox="50.709,0.6760000000000002,10.867999999999995,11.843"><desc>Created with Snap</desc><defs></defs><g></g><g><polygon points="55.709,7.519 56.33,6.674 56.577,5.676 55.964,6.502 55.709,7.519 " fill="url('#linearGradientSjglspix0og')"></polygon></g></svg></g><g class="svg-clip svg-visible" style="cursor: move; opacity: 1;" transform="matrix(1,0,0,1,320,278.5)"><rect x="0" y="0" width="12" height="15" fill="none" style="" class="svg-hitbox"></rect><svg width="12.536000000000001" height="15.366" viewBox="48.067,2.74,12.536000000000001,15.366"><desc>Created with Snap</desc><defs></defs><g></g><g><polygon points="53.067,13.106 53.689,12.262 55.603,7.74 53.324,12.092 " fill="url('#linearGradientSjglspix0oj')"></polygon></g></svg></g><g class="svg-clip svg-visible" style="cursor: move; opacity: 1;" transform="matrix(1,0,0,1,312.5,271)"><rect x="0" y="0" width="11" height="20" fill="none" style="" class="svg-hitbox"></rect><svg width="11.862000000000002" height="20.156" viewBox="40.314,-4.491,11.862000000000002,20.156"><desc>Created with Snap</desc><defs></defs><g></g><g><polygon points="45.341,10.665 46.005,8.968 47.176,0.509 45.314,8.844 45.341,10.665 " fill="url('#linearGradientSjglspix0om')"></polygon></g></svg></g><g class="svg-clip svg-visible" style="cursor: move; opacity: 1;" transform="matrix(1,0,0,1,316,273.5)"><rect x="0" y="0" width="10" height="11" fill="none" style="" class="svg-hitbox"></rect><svg width="10.527999999999999" height="11.967" viewBox="44.651,-1.7040000000000002,10.527999999999999,11.967"><desc>Created with Snap</desc><defs></defs><g></g><g><polygon points="49.651,5.263 50.113,4.322 50.179,3.296 49.724,4.218 49.651,5.263 " fill="url('#linearGradientSjglspix0op')"></polygon></g></svg></g><g class="svg-clip svg-visible" style="cursor: move; opacity: 1;" transform="matrix(1,0,0,1,314.5,276.5)"><rect x="0" y="0" width="11" height="15" fill="none" style="" class="svg-hitbox"></rect><svg width="11.543" height="15.733" viewBox="43.045,0.49899999999999967,11.543,15.733"><desc>Created with Snap</desc><defs></defs><g></g><g><polygon points="48.045,11.232 48.508,10.291 49.588,5.499 48.118,10.187 " fill="url('#linearGradientSjglspix0os')"></polygon></g></svg></g><g class="svg-clip svg-visible" style="cursor: move; opacity: 1;" transform="matrix(1,0,0,1,310,272)"><rect x="0" y="0" width="10" height="12" fill="none" style="" class="svg-hitbox"></rect><svg width="10.403000000000006" height="12.030000000000001" viewBox="38.175,-2.91,10.403000000000006,12.030000000000001"><desc>Created with Snap</desc><defs></defs><g></g><g><polygon points="43.29,4.12 43.578,3.111 43.461,2.09 43.175,3.078 " fill="url('#linearGradientSjglspix0ov')"></polygon></g></svg></g><g class="svg-clip svg-visible" style="cursor: move; opacity: 1;" transform="matrix(1,0,0,1,309,275.5)"><rect x="0" y="0" width="10" height="15" fill="none" style="" class="svg-hitbox"></rect><svg width="10.613" height="15.916" viewBox="37.656,-0.6369999999999996,10.613,15.916"><desc>Created with Snap</desc><defs></defs><g></g><g><polygon points="42.771,10.279 43.058,9.271 43.269,4.363 42.656,9.237 " fill="url('#linearGradientSjglspix0oy')"></polygon></g></svg></g><g class="svg-clip svg-visible" style="cursor: move; opacity: 1;" transform="matrix(0.6047,0,0,0.6047,242.8583,332.5343)"><rect x="0" y="0" width="103" height="28" fill="none" style="" class="svg-hitbox"></rect><svg width="103.342" height="28.381174153525834" viewBox="1.6580000000000004,34.73682584647417,103.342,28.381174153525834"><desc>Created with Snap</desc><defs></defs><g></g><g><path d="M81.876,41.127c6.515,0,12.67,1.032,18.124,2.865c-10.263-0.016-32.166,0.982-46.332,14.126  C37.1,46.861,25.551,41.55,6.658,43.789c11.988-6.911,34.706-4.896,46.437,5.387C60.44,44.206,70.622,41.127,81.876,41.127  L81.876,41.127z" fill="url('#linearGradientSjglspix0p1')"></path></g></svg></g><g class="svg-clip svg-visible" style="cursor: move; opacity: 1;" transform="matrix(0.7654,0,0,0.7654,259.5828,357.2846)"><rect x="0" y="0" width="103" height="28" fill="none" style="" class="svg-hitbox"></rect><svg width="103.342" height="28.381174153525834" viewBox="1.6580000000000004,34.73682584647417,103.342,28.381174153525834"><desc>Created with Snap</desc><defs></defs><g></g><g><path d="M81.876,41.127c6.515,0,12.67,1.032,18.124,2.865c-10.263-0.016-32.166,0.982-46.332,14.126  C37.1,46.861,25.551,41.55,6.658,43.789c11.988-6.911,34.706-4.896,46.437,5.387C60.44,44.206,70.622,41.127,81.876,41.127  L81.876,41.127z" fill="url('#linearGradientSjglspix0p4')"></path></g></svg></g><g class="svg-text svg-visible" style="pointer-events: fill; cursor: move; opacity: 1;" transform="matrix(0.5,0,0,0.5,480,303)"><path fill="none" d="M-50,151 C232.6875,150 272.6875,150 555.375,151" style=""></path><text x="0" y="0" fill="url('#linearGradientSjglspix0p7')" style="font-size: 100px; font-family: &quot;Roboto Slab&quot;; text-anchor: middle;" dy="111.15">FarBeyond</text><rect x="0" y="0" width="0" height="0"></rect></g><g><rect x="0" y="0" width="0" height="0" fill="rgba(255,136,0,0.1)" stroke="#ff8800" style="stroke-width: 1;"></rect></g><g class="selector-part" transform="matrix(1,0,0,1,242,264)"><rect x="0" y="0" width="0" height="0" fill="none" stroke="#2390bb" style="stroke-width: 2;"></rect><g transform="matrix(0.5,0,0,0.5,0,0)"><svg version="1.1" id="Calque_1" xmlns="http://www.w3.org/2000/svg" xmlns:xlink="http://www.w3.org/1999/xlink" x="349.5" y="-71px" width="28.94px" height="30px" viewBox="0 -15 28.94 30" enable-background="new 0 -15 28.94 30" xml:space="preserve" style="cursor: pointer;">
<g>
	<path fill="rgba(0,0,0,0)" d="M23.355-9.979c-0.352-0.263-0.712-0.511-1.084-0.739L20.34-7.486c0.317,0.195,0.629,0.414,0.929,0.646
		L23.355-9.979z" style=""></path>
	<path fill="rgba(0,0,0,0)" d="M28.894,0.081L25.092-0.13c0.292,2.317-0.217,4.718-1.539,6.756l-0.037-0.021
		c-0.376,0.583-0.821,1.137-1.335,1.648c-3.808,3.809-9.902,3.942-13.871,0.396C8.282,8.623,8.255,8.602,8.227,8.576
		C8.143,8.498,8.059,8.421,7.976,8.339c-0.052-0.051-0.104-0.1-0.153-0.152C7.8,8.163,7.776,8.14,7.753,8.115
		c-0.084-0.091-0.167-0.18-0.25-0.271v0.002C4.312,4.293,4.087-0.98,6.821-4.782l4.123,4.124l3.401-14.306L0.037-11.566l4.102,4.098
		C-0.064-2.14,0.193,5.554,4.917,10.587l0,0c0.012,0.016,0.023,0.025,0.033,0.037c0.091,0.098,0.181,0.199,0.278,0.293
		c0.021,0.023,0.047,0.043,0.07,0.068c0.075,0.074,0.148,0.146,0.225,0.22c0.051,0.045,0.099,0.086,0.15,0.133
		c0.053,0.047,0.104,0.094,0.156,0.14c0.144,0.13,0.291,0.257,0.439,0.375c0.01,0.012,0.018,0.016,0.027,0.023
		c5.574,4.563,13.804,4.115,18.842-1.194C27.94,7.722,29.185,3.851,28.894,0.081z" style=""></path>
	<path fill="rgba(0,0,0,0)" d="M24.122-3.353l3.544-1.319c-0.426-0.932-0.962-1.826-1.611-2.662L22.88-5.276
		C23.373-4.675,23.79-4.027,24.122-3.353z" style=""></path>
</g>
<desc>Created with Snap</desc><defs></defs><circle cx="14.5" cy="0" r="15" style="" fill="rgba(0,0,0,0)"></circle></svg></g><rect x="182" y="-21" width="0" height="21" fill="rgba(255,255,255,0)" stroke="#2390bb" style="stroke-width: 1; cursor: pointer;"></rect><circle cx="364" cy="129" r="0" fill="#ffffff" stroke="#2390bb" style="stroke-width: 2; cursor: se-resize;"></circle><circle cx="0" cy="129" r="0" fill="#ffffff" stroke="#2390bb" style="stroke-width: 2; cursor: sw-resize;"></circle><circle cx="364" cy="0" r="0" fill="#ffffff" stroke="#2390bb" style="stroke-width: 2; cursor: ne-resize;"></circle><circle cx="0" cy="0" r="0" fill="#ffffff" stroke="#2390bb" style="stroke-width: 2; cursor: nw-resize;"></circle><circle cx="182" cy="129" r="0" fill="#ffffff" stroke="#2390bb" style="stroke-width: 2; cursor: s-resize;"></circle><circle cx="182" cy="0" r="0" fill="#ffffff" stroke="#2390bb" style="stroke-width: 2; cursor: n-resize;"></circle><circle cx="0" cy="65" r="0" fill="#ffffff" stroke="#2390bb" style="stroke-width: 2; cursor: w-resize;"></circle><circle cx="364" cy="65" r="0" fill="#ffffff" stroke="#2390bb" style="stroke-width: 2; cursor: e-resize;"></circle><path stroke="#ff0000" fill="none" style="stroke-width: 3;"></path><line x1="0" x2="0" y1="0" y2="0" fill="rgba(255,255,255,0)" stroke="#2390bb" style="stroke-width: 1;"></line><line x1="0" x2="0" y1="0" y2="0" fill="rgba(255,255,255,0)" stroke="#2390bb" style="stroke-width: 1;"></line><circle cx="0" cy="0" r="0" fill="#ff0000" stroke="#2390bb" style="stroke-width: 2; cursor: pointer;"></circle><circle cx="0" cy="0" r="0" fill="#ffa500" stroke="#2390bb" style="stroke-width: 2; cursor: pointer;"></circle><circle cx="0" cy="0" r="0" fill="#ffa500" stroke="#2390bb" style="stroke-width: 2; cursor: pointer;"></circle><circle cx="0" cy="0" r="0" fill="#ff0000" stroke="#2390bb" style="stroke-width: 2; cursor: pointer;"></circle><g style="cursor: pointer; visibility: hidden; opacity: 0;" transform="matrix(1,0,0,1,-50,-15)"><rect x="0" y="0" width="30" height="30" fill="#2390bb" rx="5" ry="5" style=""></rect><rect x="6" y="6" width="18" height="4" style="" fill="#ffffff"></rect><rect x="6" y="13" width="18" height="4" fill="#ffffff" style=""></rect><rect x="6" y="20" width="18" height="4" fill="#ffffff" style=""></rect></g></g></svg>